{
    "title": "Custom System Builder - Unstable version",
    "version": "unstable-{COMMIT_HASH}",
    "scripts": ["lib/math.js", "lib/deep-diff.min.js", "scripts/chat-enhancements.js"],
    "esmodules": ["module/custom-system-builder.js"],
    "styles": [
        "css/actor/character-display.css",
        "css/actor/template-display.css",
        "css/chat-message.css",
        "css/attributes-editor.css",
        "css/component-editor.css",
        "css/user-input-editor.css",
        "css/export-display.css",
        "css/modifiers-editor.css"
    ],
    "gridDistance": 2,
    "gridUnits": "m",
    "url": "https://gitlab.com/custom-system-builder/custom-system-builder/",
    "manifest": "https://gitlab.com/api/v4/projects/31995966/jobs/artifacts/develop/raw/out/system.json?job=build-unstable",
    "download": "https://gitlab.com/api/v4/projects/31995966/jobs/artifacts/develop/raw/out/custom-system-builder-unstable.zip?job=build-unstable",
    "id": "custom-system-builder-unstable",
    "authors": [
        {
            "name": "Jean-Baptiste Louvet-Daniel"
        },
        {
            "name": "Martin1522",
            "email": "martindeutsch152@outlook.de",
            "discord": "Martin1522"
        }
    ],
    "relationships": {
        "requires": [
            {
                "id": "_chatcommands",
                "type": "module",
                "manifest": "https://github.com/League-of-Foundry-Developers/Chat-Commands-Lib/releases/download/1.4.0/module.json",
                "compatibility": {
                    "verified": "1.4.0"
                }
            }
        ]
    },
    "compatibility": {
        "minimum": "10",
        "verified": "11"
    },
    "name": "custom-system-builder-unstable",
    "minimumCoreVersion": "10"
}
