{
    "title": "Custom System Builder",
    "version": "2.3.1",
    "scripts": ["lib/math.js", "lib/deep-diff.min.js", "scripts/chat-enhancements.js"],
    "esmodules": ["module/custom-system-builder.js"],
    "styles": [
        "css/actor/character-display.css",
        "css/actor/template-display.css",
        "css/chat-message.css",
        "css/attributes-editor.css",
        "css/component-editor.css",
        "css/user-input-editor.css",
        "css/export-display.css",
        "css/modifiers-editor.css"
    ],
    "gridDistance": 2,
    "gridUnits": "m",
    "url": "https://gitlab.com/custom-system-builder/custom-system-builder/",
    "manifest": "https://gitlab.com/custom-system-builder/custom-system-builder/-/raw/main/system.json",
    "download": "https://gitlab.com/custom-system-builder/custom-system-builder/-/releases/2.3.1/downloads/custom-system-builder.zip",
    "id": "custom-system-builder",
    "authors": [
        {
            "name": "Jean-Baptiste Louvet-Daniel",
            "flags": {}
        },
        {
            "name": "Martin1522",
            "email": "martindeutsch152@outlook.de",
            "discord": "Martin1522"
        }
    ],
    "relationships": {
        "requires": [
            {
                "id": "_chatcommands",
                "type": "module",
                "manifest": "https://gitlab.com/woodentavern/foundryvtt-chat-command-lib/-/raw/6a3af2e477a4518635a9caeabf3dbaa60ae5f4a2/src/module.json",
                "compatibility": {
                    "verified": "2.0.1"
                }
            }
        ]
    },
    "compatibility": {
        "minimum": "10",
        "verified": "11"
    }
}
